{
  "key": "${addon.key}",
  "baseUrl": "https://86e99a44.ngrok.io",
  "name": "Jira Starter Addon",
  "vendor": {
    "name": "Diso AG",
    "url": "https://diso.ch"
  },
  "authentication": {
    "type": "jwt"
  },
  "lifecycle": {
    "installed": "/installed",
    "uninstalled": "/uninstalled"
  },
  "apiVersion": 1,
  "modules": {
    "generalPages": [
      {
        "url": "test",
        "key": "Landing-Page",
        "location": "system.top.navigation.bar",
        "name": {
          "value": "Jira Starter Addon"
        }
      }
    ]
  }
}
